%YAML 1.1
%TAG !u! tag:unity3d.com,2011:
--- !u!1 &1246429194607140
GameObject:
  m_ObjectHideFlags: 0
  m_CorrespondingSourceObject: {fileID: 0}
  m_PrefabInstance: {fileID: 0}
  m_PrefabAsset: {fileID: 0}
  serializedVersion: 6
  m_Component:
  - component: {fileID: 4091498853008650}
  - component: {fileID: 33702387072499252}
  - component: {fileID: 23684315849378316}
  m_Layer: 0
  m_Name: Mod_BigBarrel
  m_TagString: Untagged
  m_Icon: {fileID: 0}
  m_NavMeshLayer: 0
  m_StaticEditorFlags: 0
  m_IsActive: 1
--- !u!4 &4091498853008650
Transform:
  m_ObjectHideFlags: 0
  m_CorrespondingSourceObject: {fileID: 0}
  m_PrefabInstance: {fileID: 0}
  m_PrefabAsset: {fileID: 0}
  m_GameObject: {fileID: 1246429194607140}
  m_LocalRotation: {x: -0, y: -0, z: -0, w: 1}
  m_LocalPosition: {x: 0, y: 0, z: 0}
  m_LocalScale: {x: 1, y: 1, z: 1}
  m_Children: []
  m_Father: {fileID: 4529784397573094}
  m_RootOrder: 1
  m_LocalEulerAnglesHint: {x: 0, y: 0, z: 0}
--- !u!33 &33702387072499252
MeshFilter:
  m_ObjectHideFlags: 0
  m_CorrespondingSourceObject: {fileID: 0}
  m_PrefabInstance: {fileID: 0}
  m_PrefabAsset: {fileID: 0}
  m_GameObject: {fileID: 1246429194607140}
  m_Mesh: {fileID: 4300000, guid: 8b85581628bc6564e85cd7162b3a6a9e, type: 3}
--- !u!23 &23684315849378316
MeshRenderer:
  m_ObjectHideFlags: 0
  m_CorrespondingSourceObject: {fileID: 0}
  m_PrefabInstance: {fileID: 0}
  m_PrefabAsset: {fileID: 0}
  m_GameObject: {fileID: 1246429194607140}
  m_Enabled: 1
  m_CastShadows: 1
  m_ReceiveShadows: 1
  m_DynamicOccludee: 1
  m_MotionVectors: 1
  m_LightProbeUsage: 1
  m_ReflectionProbeUsage: 1
  m_RayTracingMode: 2
  m_RenderingLayerMask: 1
  m_RendererPriority: 0
  m_Materials:
  - {fileID: 2100000, guid: c758c5a4b3834b644b1145534af1f7b9, type: 2}
  m_StaticBatchInfo:
    firstSubMesh: 0
    subMeshCount: 0
  m_StaticBatchRoot: {fileID: 0}
  m_ProbeAnchor: {fileID: 0}
  m_LightProbeVolumeOverride: {fileID: 0}
  m_ScaleInLightmap: 1
  m_ReceiveGI: 1
  m_PreserveUVs: 0
  m_IgnoreNormalsForChartDetection: 0
  m_ImportantGI: 0
  m_StitchLightmapSeams: 1
  m_SelectedEditorRenderState: 3
  m_MinimumChartSize: 4
  m_AutoUVMaxDistance: 0.5
  m_AutoUVMaxAngle: 89
  m_LightmapParameters: {fileID: 0}
  m_SortingLayerID: 0
  m_SortingLayer: 0
  m_SortingOrder: 0
--- !u!1 &1964431040936758
GameObject:
  m_ObjectHideFlags: 0
  m_CorrespondingSourceObject: {fileID: 0}
  m_PrefabInstance: {fileID: 0}
  m_PrefabAsset: {fileID: 0}
  serializedVersion: 6
  m_Component:
  - component: {fileID: 4529784397573094}
  - component: {fileID: 8849266762173744676}
  - component: {fileID: 5228248292337448048}
  m_Layer: 0
  m_Name: Prefab_BigBarrel_color01
  m_TagString: Enemy
  m_Icon: {fileID: 0}
  m_NavMeshLayer: 0
  m_StaticEditorFlags: 0
  m_IsActive: 1
--- !u!4 &4529784397573094
Transform:
  m_ObjectHideFlags: 0
  m_CorrespondingSourceObject: {fileID: 0}
  m_PrefabInstance: {fileID: 0}
  m_PrefabAsset: {fileID: 0}
  m_GameObject: {fileID: 1964431040936758}
  m_LocalRotation: {x: 0, y: 0, z: 0, w: 1}
  m_LocalPosition: {x: 0, y: 0, z: 0}
  m_LocalScale: {x: 1, y: 1, z: 1}
  m_Children:
  - {fileID: 2212725704919292629}
  - {fileID: 4091498853008650}
  m_Father: {fileID: 0}
  m_RootOrder: 0
  m_LocalEulerAnglesHint: {x: 0, y: 0, z: 0}
--- !u!65 &8849266762173744676
BoxCollider:
  m_ObjectHideFlags: 0
  m_CorrespondingSourceObject: {fileID: 0}
  m_PrefabInstance: {fileID: 0}
  m_PrefabAsset: {fileID: 0}
  m_GameObject: {fileID: 1964431040936758}
  m_Material: {fileID: 0}
  m_IsTrigger: 0
  m_Enabled: 1
  serializedVersion: 2
  m_Size: {x: 0.72, y: 1, z: 1}
  m_Center: {x: 0, y: 0.53, z: 0}
--- !u!114 &5228248292337448048
MonoBehaviour:
  m_ObjectHideFlags: 0
  m_CorrespondingSourceObject: {fileID: 0}
  m_PrefabInstance: {fileID: 0}
  m_PrefabAsset: {fileID: 0}
  m_GameObject: {fileID: 1964431040936758}
  m_Enabled: 1
  m_EditorHideFlags: 0
  m_Script: {fileID: 11500000, guid: 6fa93d4b998d3fc459070e2891686b4d, type: 3}
  m_Name: 
  m_EditorClassIdentifier: 
  maxHealthPoints: 10
  getHitParticle: {fileID: 2019026863202072141}
  killParticle: {fileID: 1037864198121816, guid: 638c8ca438a11c54987de876e500ed02,
    type: 3}
  shakeOnGetHit: 1
  shakeRange: {x: -0.5, y: 0.5}
  amountOfShakes: 3
--- !u!1001 &8005069525008244091
PrefabInstance:
  m_ObjectHideFlags: 0
  serializedVersion: 2
  m_Modification:
    m_TransformParent: {fileID: 4529784397573094}
    m_Modifications:
    - target: {fileID: 8188272119977396142, guid: f643a7a668b94784699b652d2d3f6001,
        type: 3}
      propertyPath: m_LocalPosition.x
      value: 0
      objectReference: {fileID: 0}
    - target: {fileID: 8188272119977396142, guid: f643a7a668b94784699b652d2d3f6001,
        type: 3}
      propertyPath: m_LocalPosition.y
      value: 0.597
      objectReference: {fileID: 0}
    - target: {fileID: 8188272119977396142, guid: f643a7a668b94784699b652d2d3f6001,
        type: 3}
      propertyPath: m_LocalPosition.z
      value: 0
      objectReference: {fileID: 0}
    - target: {fileID: 8188272119977396142, guid: f643a7a668b94784699b652d2d3f6001,
        type: 3}
      propertyPath: m_LocalRotation.x
      value: 0
      objectReference: {fileID: 0}
    - target: {fileID: 8188272119977396142, guid: f643a7a668b94784699b652d2d3f6001,
        type: 3}
      propertyPath: m_LocalRotation.y
      value: 1
      objectReference: {fileID: 0}
    - target: {fileID: 8188272119977396142, guid: f643a7a668b94784699b652d2d3f6001,
        type: 3}
      propertyPath: m_LocalRotation.z
      value: 0
      objectReference: {fileID: 0}
    - target: {fileID: 8188272119977396142, guid: f643a7a668b94784699b652d2d3f6001,
        type: 3}
      propertyPath: m_LocalRotation.w
      value: 0
      objectReference: {fileID: 0}
    - target: {fileID: 8188272119977396142, guid: f643a7a668b94784699b652d2d3f6001,
        type: 3}
      propertyPath: m_RootOrder
      value: 0
      objectReference: {fileID: 0}
    - target: {fileID: 8188272119977396142, guid: f643a7a668b94784699b652d2d3f6001,
        type: 3}
      propertyPath: m_LocalEulerAnglesHint.x
      value: 0
      objectReference: {fileID: 0}
    - target: {fileID: 8188272119977396142, guid: f643a7a668b94784699b652d2d3f6001,
        type: 3}
      propertyPath: m_LocalEulerAnglesHint.y
      value: 180
      objectReference: {fileID: 0}
    - target: {fileID: 8188272119977396142, guid: f643a7a668b94784699b652d2d3f6001,
        type: 3}
      propertyPath: m_LocalEulerAnglesHint.z
      value: 0
      objectReference: {fileID: 0}
    - target: {fileID: 8190162652073526094, guid: f643a7a668b94784699b652d2d3f6001,
        type: 3}
      propertyPath: m_Name
      value: BarrelHitParticle Variant
      objectReference: {fileID: 0}
    m_RemovedComponents: []
  m_SourcePrefab: {fileID: 100100000, guid: f643a7a668b94784699b652d2d3f6001, type: 3}
--- !u!4 &2212725704919292629 stripped
Transform:
  m_CorrespondingSourceObject: {fileID: 8188272119977396142, guid: f643a7a668b94784699b652d2d3f6001,
    type: 3}
  m_PrefabInstance: {fileID: 8005069525008244091}
  m_PrefabAsset: {fileID: 0}
--- !u!198 &2019026863202072141 stripped
ParticleSystem:
  m_CorrespondingSourceObject: {fileID: 8291899244089617206, guid: f643a7a668b94784699b652d2d3f6001,
    type: 3}
  m_PrefabInstance: {fileID: 8005069525008244091}
  m_PrefabAsset: {fileID: 0}
